{
  "mousetrap": {
    "className": "Mousetrap",
    "url": "craig.is/killing/mice",
    "bindFunc": {
      "signature": "bind = function(keys, callback[, action])",
      "names": ["bind"],
      "isPrototype": true,
      "callbackIndex": 1
    },
    "delim": {
      "multi": "array",
      "sequence": " ",
      "combo": "+"
    }
  },
  "jwerty": {
    "className": "jwerty",
    "url": "keithamus.github.io/jwerty",
    "bindFunc": {
      "signature": "key: function (jwertyCode, callbackFunction, callbackContext...",
      "names": ["key"],
      "isPrototype": false,
      "callbackIndex": 1
    },
    "delim": {
      "multi": "/",
      "sequence": ",",
      "combo": "+"
    }
  },
  "keyboardjs": {
    "className": "keyboardJS",
    "url": "github.com/RobertWHurst/KeyboardJS",
    "bindFunc": {
      "signature": "bind = function(keyComboStr, pressHandler[, releaseHandler][,preventRepeatByDefault])",
      "names": ["bind"],
      "isPrototype": false,
      "callbackIndex": 1
    },
    "delim": {
      "multi": false, "BUGFIX": "combo array don't work, @see core.coffee for BUGFIX",
      "sequence": ">", "BUGFIX": "sequences don't work",
      "combo": "+"
    }
  },
  "kibo": {
    "className": "Kibo",
    "url": "github.com/marquete/kibo",
    "bindFunc": {
      "signature": "delegate = function(upOrDown, keys, func)",
      "names": ["down", "up"],
      "isPrototype": true,
      "callbackIndex": 1
    },
    "delim": {
      "multi": "array",
      "sequence": false,
      "combo": " "
    }
  },
  "keymaster": {
    "className": false,
    "url": "github.com/madrobby/keymaster",
    "bindFunc": {
      "signature": "function key(key[, scope,] method)",
      "names": ["key"],
      "isPrototype": false,
      "callbackIndex": 1
    },
    "delim": {
      "multi": ",",
      "sequence": false,
      "combo": "+"
    }
  },
  "hotkeys": {
    "className": false,
    "url": "jaywcjlove.github.io/hotkeys",
    "bindFunc": {
      "signature": "function hotkeys(key[, scope,] method)",
      "names": ["hotkeys"],
      "isPrototype": false,
      "callbackIndex": 1
    },
    "delim": {
      "multi": ",",
      "sequence": false,
      "combo": "+"
    }
  }
}
